{
    "name": "Java",
    "dockerComposeFile" : "compose.yml",
    "workspaceFolder": "/home/vscode/workspace",
    "service": "dev",
    "features": {
        "ghcr.io/devcontainers/features/sshd:1": {}
    },
    "forwardPorts": [2000 , 3000 , 80],
    "mounts": [
        "source=${localWorkspaceFolder}/.ssh,target=/home/vscode/.ssh,type=bind,consistency=cached",
        "source=${localWorkspaceFolder},target=/home/vscode/workspace,type=bind,consistency=delegated"
    ],
    "remoteUser": "vscode"
}
